…
``` r
# A tibble was created with just the variables of interest, diagnosis and concavity using the function select.
#Using the arrange function the tibble was reordered by the ascending values of concavity
#The numerical variable of concavity were divided into low, high, and very high categories using the mutate function to create a new column. 
#Case_when was used to categorize the values into 3 different categories, the true value is stated for the values that didn't meet the categories established before.
Q3.2 <- cancer_sample %>%
    select(diagnosis, concavity_mean) %>%
    arrange(concavity_mean) %>%
     mutate(concavity = case_when (concavity_mean <0.1 ~  "normal", 
                                   concavity_mean <0.25 ~  "high", 
                                   TRUE ~ "extremly high"))
Q3.2
```

    ## # A tibble: 569 × 3
    ##    diagnosis concavity_mean concavity
    ##    <chr>              <dbl> <chr>    
    ##  1 B                      0 normal   
    ##  2 B                      0 normal   
    ##  3 B                      0 normal   
    ##  4 B                      0 normal   
    ##  5 B                      0 normal   
    ##  6 B                      0 normal   
    ##  7 B                      0 normal   
    ##  8 B                      0 normal   
    ##  9 B                      0 normal   
    ## 10 B                      0 normal   
    ## # … with 559 more rows
…
In this arrangement is easy to analyze the data extracting certain
variables and filtering specific observations, so it is possible to use
the functions in the tidyverse package.

``` r
#The first example of a tidy tibble was made by just selecting 8 columns from the original data set.
T2.1<- cancer_sample %>%
  select(diagnosis, area_mean, perimeter_mean, smoothness_mean, concavity_mean, symmetry_mean, compactness_mean, texture_mean)
T2.1
```

    ## # A tibble: 569 × 8
    ##    diagnosis area_mean perimeter_mean smoothness_mean concavity_mean
    ##    <chr>         <dbl>          <dbl>           <dbl>          <dbl>
    ##  1 M             1001           123.           0.118          0.300 
    ##  2 M             1326           133.           0.0847         0.0869
    ##  3 M             1203           130            0.110          0.197 
    ##  4 M              386.           77.6          0.142          0.241 
    ##  5 M             1297           135.           0.100          0.198 
    ##  6 M              477.           82.6          0.128          0.158 
    ##  7 M             1040           120.           0.0946         0.113 
    ##  8 M              578.           90.2          0.119          0.0937
    ##  9 M              520.           87.5          0.127          0.186 
    ## 10 M              476.           84.0          0.119          0.227 
    ## # … with 559 more rows, and 3 more variables: symmetry_mean <dbl>,
    ## #   compactness_mean <dbl>, texture_mean <dbl>
…
